<svg xmlns="http://www.w3.org/2000/svg" width="8" height="12" viewBox="0 0 8 12">
  <g id="pin_1_" data-name="pin (1)" transform="translate(-85.333)">
    <g id="Group_4337" data-name="Group 4337" transform="translate(85.333)">
      <path id="Path_1898" data-name="Path 1898" d="M89.333,0a4,4,0,0,0-3.52,5.9l3.3,5.97a.25.25,0,0,0,.437,0l3.3-5.972A4,4,0,0,0,89.333,0Zm0,6a2,2,0,1,1,2-2A2,2,0,0,1,89.333,6Z" transform="translate(-85.333)"/>
    </g>
  </g>
</svg>
