<svg xmlns="http://www.w3.org/2000/svg" xmlns:xlink="http://www.w3.org/1999/xlink" width="142.671" height="142.263" viewBox="0 0 142.671 142.263">
  <defs>
    <clipPath id="clip-path">
      <rect id="Rectangle_1846" data-name="Rectangle 1846" width="104.936" height="96.665" fill="none"/>
    </clipPath>
  </defs>
  <g id="Group_4352" data-name="Group 4352" transform="translate(0 71.566) rotate(-43)">
    <g id="Group_4351" data-name="Group 4351" transform="translate(0 0)" clip-path="url(#clip-path)">
      <path id="Path_1902" data-name="Path 1902" d="M103.218,96.656l-20.89-2.744c-2.137-.278-2.165-3.676,0-3.392q8.044,1.055,16.09,2.113c-6.382-7.978-15.9-13.127-24.842-17.7C62.09,69.066,50.542,63.463,38.028,60.126l-1.064-.279c.555.88,1.073,1.781,1.536,2.707,1.753,3.489,2.625,7.448,1,11.137-1.673,3.8-6.442,5.309-10.239,5.56-7.973.532-18.438-3.685-22.211-11.067C5.526,65.2,5.33,61.319,7.56,58.637c2.1-2.535,5.523-3.513,8.656-3.995a43.356,43.356,0,0,1,12.5.069c-1.856-2.111-3.8-4.148-5.7-6.176-7.17-7.658-14.255-15.328-19-24.792A34.516,34.516,0,0,1,0,9.042C-.051,5.9.521,1.737,3.659.192c1.957-.965,3.678,1.962,1.714,2.93C3.505,4.047,3.446,6.783,3.4,8.6a26.385,26.385,0,0,0,1.84,9.461c2.24,6.289,6.187,12.069,10.375,17.207,4.054,4.976,8.615,9.519,12.944,14.25,1.8,1.97,3.655,3.987,5.361,6.111,2.772.594,5.508,1.329,8.184,2.1,12.04,3.492,23.268,9.165,34.376,14.879,7.83,4.024,15.747,8.589,21.927,14.931-1.737-4.29-3.441-8.6-4.867-12.982-.682-2.086,2.594-2.971,3.27-.9,2.3,7.059,5.317,13.943,8.045,20.846a1.7,1.7,0,0,1-1.636,2.148m-89.4-38.017c-3.211.962-5.107,3.094-4.3,6.52,1,4.236,5.493,6.933,9.157,8.592a23.876,23.876,0,0,0,10.585,2.106c3.322-.124,7.333-1.814,7.732-5.515.369-3.448-1.68-6.933-3.547-9.66-.465-.678-.955-1.34-1.458-2-6.016-1.231-12.379-1.776-18.17-.044" transform="translate(0 0)"/>
    </g>
  </g>
</svg>
